
[
{
   "id":1461267313,
   "category_id":4,
   "title":"Statue homme noir assis en plâtre polychrome",
   "description":"Magnifique Statuette homme noir assis fumant le cigare en terre cuite et plâtre polychrome réalisée à la main.  Poids  1,900 kg en très bon état, aucun éclat  !  Hauteur 18 cm  Largeur : 16 cm Profondeur : 18cm  Création Jacky SAMSON  OPTIMUM  PARIS  Possibilité de remise sur place en gare de Fontainebleau ou Paris gare de Lyon, en espèces (heure et jour du rendez-vous au choix). Envoi possible ! Si cet article est toujours visible sur le site c'est qu'il est encore disponible",
   "price":140.00,
   "images_url":{
      "small":"https://raw.githubusercontent.com/leboncoin/paperclip/master/ad-small/2c9563bbe85f12a5dcaeb2c40989182463270404.jpg",
      "thumb":"https://raw.githubusercontent.com/leboncoin/paperclip/master/ad-thumb/2c9563bbe85f12a5dcaeb2c40989182463270404.jpg"
   },
   "creation_date":"2019-11-05T15:56:59+0000",
   "is_urgent":false
},
{
   "id":1691247255,
   "category_id":8,
   "title":"Pc portable hp elitebook 820 g1 core i5 4 go ram 250 go hdd",
   "description":"= = = = = = = = = PC PORTABLE HP ELITEBOOK 820 G1 = = = = = = = = = # # # # # # # # # # # # # # # # # # # # # # # # # # # # # # # # # # # # # # # # # # # # # # # # # # HP ELITEBOOK 820 G1 Processeur : Intel Core i5 4300M Fréquence : 2,60 GHz Mémoire : 4 GO DDR3 Disque Dur : 320 GO SATA Vidéo : Intel HD Graphics Lecteur Optique : Lecteur/Graveur CD/DVDRW Réseau : LAN 10/100 Système : Windows 7 Pro – 64bits Etat : Reconditionné  Garantie : 6 Mois Prix TTC : 199,00 € Boostez ce PC PORTABLE : Passez à la vitesse supérieure en augmentant la RAM : Passez de 4 à 6 GO de RAM pour 19€  Passez de 4 à 8 GO de RAM pour 29€  (ajout rapide, doublez la vitesse en 5 min sur place !!!) Stockez plus en augmentant la capacité de votre disque dur : Passez en 500 GO HDD pour 29€  Passez en 1000 GO HDD pour 49€  Passez en 2000 GO HDD pour 89€  Passez en SSD pour un PC 10 Fois plus rapide : Passez en 120 GO SSD pour 49€  Passez en 240 GO SSD pour 79€  Passez en 480 GO SSD pour 119€ # # # # # # # # # # # # # # # # # # # # # # # # # # # # # # # # # # # # # # # # # # # # # # # # # # Nous avons plus de 300 Ordinateurs PC Portables. Visible en boutique avec une garantie de 6 mois vendu avec Facture TVA, pas de surprise !!!! Les prix varient en moyenne entre 150€ à 600€, PC Portables en stock dans notre boutique sur Paris. # # # # # # # # # # # # # # # # # # # # # # # # # # # # # # # # # # # # # # # # # # # # # # # # # # KIATOO est une société qui regroupe à la fois: - PC Portable - PC de Bureau / Fixe - Chargeur PC Portable - Batterie PC Portable - Clavier PC Portable - Ventilateur PC Portable - Nappe LCD écran - Ecran LCD PC Portable - Mémoire PC Portable - Disque dur PC Portable - Inverter PC Portable - Connecteur Jack DC PC Portable ASUS, ACER, COMPAQ, DELL, EMACHINES, HP, IBM, LENOVO, MSI, PACKARD BELL, PANASONIC, SAMSUNG, SONY, TOSHIBA...",
   "price":199.00,
   "images_url":{
      "small":"https://raw.githubusercontent.com/leboncoin/paperclip/master/ad-small/633f278423b9aa6b04fa9cc954079befd294473f.jpg",
      "thumb":"https://raw.githubusercontent.com/leboncoin/paperclip/master/ad-thumb/633f278423b9aa6b04fa9cc954079befd294473f.jpg"
   },
   "creation_date":"2019-10-16T17:10:20+0000",
   "is_urgent":false
},
{
   "id":1664493117,
   "category_id":9,
   "title":"Professeur natif d'espagnol à domicile",
   "description":"Doctorant espagnol, ayant fait des études de linguistique comparée français - espagnol et de traduction (thème/version) 0 la Sorbonne, je vous propose des cours d'espagnol à domicile à Paris intramuros. Actuellement j'enseigne l'espagnol dans un lycée et j'ai plus de cinq ans d'expérience comme professeur particulier, à Paris et à Madrid. Tous les niveaux, tous les âges. Je m'adapte à vos besoins et vous propose une méthode personnalisée et dynamique, selon vos point forts et vos points faibles, pour mieux travailler votre :  - Expression orale - Compréhension orale - Grammaire - Vocabulaire - Production écrite - Compréhension écrite Tarif : 25 euros/heure",
   "price":25.00,
   "images_url":{
      "small":"https://raw.githubusercontent.com/leboncoin/paperclip/master/ad-small/af9c43ff5a3b3692f9f1aa3c17d7b46d8b740311.jpg",
      "thumb":"https://raw.githubusercontent.com/leboncoin/paperclip/master/ad-thumb/af9c43ff5a3b3692f9f1aa3c17d7b46d8b740311.jpg"
   },
   "creation_date":"2019-11-05T15:56:55+0000",
   "is_urgent":false,
   "siret":"123 323 002"
},
{
   "id":1077103477,
   "category_id":2,
   "title":"Ensemble fille 1 mois NEUF",
   "description":"Vends Robe avec t-shirt neuf Presti Presto en 1 mois.",
   "price":5.00,
   "images_url":{
      "small":"https://raw.githubusercontent.com/leboncoin/paperclip/master/ad-small/5ae4741dabd3a236cbfb8b6a5746acba6823e41e.jpg",
      "thumb":"https://raw.githubusercontent.com/leboncoin/paperclip/master/ad-thumb/5ae4741dabd3a236cbfb8b6a5746acba6823e41e.jpg"
   },
   "creation_date":"2019-11-05T15:56:52+0000",
   "is_urgent":true
},
{
   "id":1671026575,
   "category_id":8,
   "title":"Sony Ericsson Xperia Arc S + coque (occasion)",
   "description":"Je vends ce Sony Ericsson Xperia Arc S, TOUT fonctionne PARFAITEMENT.  Le téléphone présente quelques traces d'usures (rayures). Un téléphone comme celui-ci vaut actuellement 80 Euro(s) sur internet, je vous le vends donc pour 50 Euro(s) avec la coque en cadeau !  Modèle : LT18i",
   "price":50.00,
   "images_url":{
      "small":"https://raw.githubusercontent.com/leboncoin/paperclip/master/ad-small/e0a5bddfc205b940d8679680c3a0e08a6c1cb919.jpg",
      "thumb":"https://raw.githubusercontent.com/leboncoin/paperclip/master/ad-thumb/e0a5bddfc205b940d8679680c3a0e08a6c1cb919.jpg"
   },
   "creation_date":"2019-11-05T15:56:50+0000",
   "is_urgent":true
},
{
   "id":1701863965,
   "category_id":5,
   "title":"LEGO TRAIN PASSAGERS Pièce Détachée",
   "description":"LEGO Le train de passagers rouge Lego 7938 vrac de pièces détachées pour agrandir votre train avec les rails ou le compléter avec des pièces toutes les pièces sont présentes sur la photo je ne fais pas d'envoi Remise Paris ( je peux me deplacer sur 16, 15 ou 14 ieme)",
   "price":37.00,
   "images_url":{
      "small":"https://raw.githubusercontent.com/leboncoin/paperclip/master/ad-small/40d3d4c3ee75786859e638146a0a3e3a405e757d.jpg",
      "thumb":"https://raw.githubusercontent.com/leboncoin/paperclip/master/ad-thumb/40d3d4c3ee75786859e638146a0a3e3a405e757d.jpg"
   },
   "creation_date":"2019-11-05T15:56:45+0000",
   "is_urgent":false
},
{
   "id":1685116102,
   "category_id":6,
   "title":"Boutique à céder Oberkampf",
   "description":"Cause démenagement en province, local commercial à céder situé dans la dynamique rue Saint-Maur. Actuellement boutique de prêt-à-porter avec une très belle clientèle. Idéal prêt-à-porter, créateur bijoux, Dépôt-vente etc... Pas de restauration avec extraction. Agences s'abstenir !",
   "price":45000.00,
   "images_url":{
      "small":"https://raw.githubusercontent.com/leboncoin/paperclip/master/ad-small/c4ec3e7f665977a9922e934c25643a49db9a6f83.jpg",
      "thumb":"https://raw.githubusercontent.com/leboncoin/paperclip/master/ad-thumb/c4ec3e7f665977a9922e934c25643a49db9a6f83.jpg"
   },
   "creation_date":"2019-10-04T15:26:36+0000",
   "is_urgent":false,
   "siret":"476 324 343"
},
{
   "id":1701846531,
   "category_id":8,
   "title":"Objectif Sony Fe 35mm F/2.8",
   "description":"Bonjour Je vend cet objectif Sony FE Zeiss 35mm ouverture F 2.8 acheté il y a 6 mois dans un état pratiquement neuf et dans son emballage d'origine. Pour plus d'information envoyez moi un message",
   "price":470.00,
   "images_url":{
      "small":"https://raw.githubusercontent.com/leboncoin/paperclip/master/ad-small/254308d0083d9293657d938f782c079bfa4a0b3a.jpg",
      "thumb":"https://raw.githubusercontent.com/leboncoin/paperclip/master/ad-thumb/254308d0083d9293657d938f782c079bfa4a0b3a.jpg"
   },
   "creation_date":"2019-11-05T15:56:43+0000",
   "is_urgent":true
},
{
   "id":1701863870,
   "category_id":4,
   "title":"Console blanche 1 tiroir en épicéa massif INTERIORS",
   "description":"Bonjour, Je me sépare de ma console de la marque Interiors en épicéa massif de couleur blanc vieilli poncée entièrement à la main. Elle est composée d’un tiroir et d’une tablette fixe, le tout est tout non démontable, la table est en une seule pièce pour une meilleure longévité. Dimensions: Largeur 110 cm Hauteur 76 cm Profondeur 35 cm",
   "price":200.00,
   "images_url":{
      "small":"https://raw.githubusercontent.com/leboncoin/paperclip/master/ad-small/f9498cc382b56420d3cfd3615f88887aae7860a1.jpg",
      "thumb":"https://raw.githubusercontent.com/leboncoin/paperclip/master/ad-thumb/f9498cc382b56420d3cfd3615f88887aae7860a1.jpg"
   },
   "creation_date":"2019-11-05T15:56:36+0000",
   "is_urgent":false
},
{
   "id":1701863887,
   "category_id":4,
   "title":"Joli meuble commode tiroir mirroir ancien",
   "description":"Je vends une commode ancienne en bois d’époque. Très jolie, mais cassée à un endroit (voir photo). À venir chercher. Dimensions : Hauteur : 73cm Longueur : 53 cm Largeur : 39 cm",
   "price":35.00,
   "images_url":{
      "small":"https://raw.githubusercontent.com/leboncoin/paperclip/master/ad-small/4e72a204a34524ce0c6e7cc8b3826f2749138570.jpg",
      "thumb":"https://raw.githubusercontent.com/leboncoin/paperclip/master/ad-thumb/4e72a204a34524ce0c6e7cc8b3826f2749138570.jpg"
   },
   "creation_date":"2019-11-05T15:56:35+0000",
   "is_urgent":true
},
{
   "id":1701863873,
   "category_id":3,
   "title":"Radiateurs",
   "description":"3 radiateurs de différents dimensions : Largeur x hauteur x profondeur : 105 x 42 x 13 59 x 42 x 13 48 x 50 x 10 Prix : 60 € le lot ou prix à l'unité",
   "price":10.00,
   "images_url":{
      "small":"https://raw.githubusercontent.com/leboncoin/paperclip/master/ad-small/cc058715b0279ab8dbd11146050a1eddd769524f.jpg",
      "thumb":"https://raw.githubusercontent.com/leboncoin/paperclip/master/ad-thumb/cc058715b0279ab8dbd11146050a1eddd769524f.jpg"
   },
   "creation_date":"2019-11-05T15:56:35+0000",
   "is_urgent":false
},
{
   "id":1461742431,
   "category_id":2,
   "title":"Pull bleu coton",
   "description":"Pull anglais coton",
   "price":10.00,
   "images_url":{
      "small":"https://raw.githubusercontent.com/leboncoin/paperclip/master/ad-small/df40ee665ce19053e5465c23180e9e9c75c4b71d.jpg",
      "thumb":"https://raw.githubusercontent.com/leboncoin/paperclip/master/ad-thumb/df40ee665ce19053e5465c23180e9e9c75c4b71d.jpg"
   },
   "creation_date":"2019-11-05T15:56:33+0000",
   "is_urgent":true
},
{
   "id":1089188763,
   "category_id":7,
   "title":"After effects 7.0",
   "description":"Vends le livre  classroom in a book  d'after effects 7.0 pour apprendre le logiciel.",
   "price":5.00,
   "images_url":{
      "small":"https://raw.githubusercontent.com/leboncoin/paperclip/master/ad-small/b044c1a3ff14881709f4a53722b754791a26bb0e.jpg",
      "thumb":"https://raw.githubusercontent.com/leboncoin/paperclip/master/ad-thumb/b044c1a3ff14881709f4a53722b754791a26bb0e.jpg"
   },
   "creation_date":"2019-11-05T15:56:32+0000",
   "is_urgent":true
},
{
   "id":1701863853,
   "category_id":8,
   "title":"Flycam Flowline 850n/ flycam FLOWLINE Placid Ressort à deux axes de bras (like easyrig)",
   "description":"Flycam Flowline 850n/ flycam FLOWLINE Placid Ressort à deux axes de bras (like easyrig)",
   "price":1150.00,
   "images_url":{
      "small":"https://raw.githubusercontent.com/leboncoin/paperclip/master/ad-small/0f002b83a3a00151353252f363db997cb944614c.jpg",
      "thumb":"https://raw.githubusercontent.com/leboncoin/paperclip/master/ad-thumb/0f002b83a3a00151353252f363db997cb944614c.jpg"
   },
   "creation_date":"2019-11-05T15:56:27+0000",
   "is_urgent":true
},
{
   "id":1701863797,
   "category_id":8,
   "title":"Casque everest jbl 300 (bluetooth)",
   "description":"Je vends ce casque bluetooth JBL Everest 300 on ear headphones En excellent état, fonctionne parfaitement. Possibilité de le connecter en bluetoot ou filaire avec micro intégré. Vendu avec ses accessoires d'origine. Disponible rapidement Remise en main propre sur Paris ou de préférence à Bussy St Georges. En espèces uniquement. Mots clés: iphone 128go, Samsung S9, Huawei p20, Ps4, Xbox,Nintendo, gtx Nvidia 1080, AMD Radeon, Sony RX100V, a6300, a6400, a6500, Panasonic GH4, GH5, Fujifilm, Canon,Samsung Galaxy S10 Plus, iPhone XS Max, Google Pixel 3, OnePlus 7 Pro, Samsung Galaxy S10e, doudoune oneplus 6T, Samsung Galaxy S9 Plus, veste Google Pixel 3a, Samsung Galaxy Note 9, Nokia 7, Moto G7 Power, yeezy 350 700 500 Huawei Mate P30 Pro, balenciaga supreme vêtement pull gilet tshirt livre sony PS4, Nintendo Wii U, Microsoft Xbox, Macbook, Dell Alienware, Asus ROG, MSI Titan, Acer Predator, HP Omen, Razer Blade, Nvidia GTX, AMD RX, Nike, Adidas, Zara, Catimini, Levi's, Rbnb  air bnb immobilier appartement puma Ralph Lauren, Mango, Lacoste, Calvin Klein, H&M, Guess, Ikks Tommy Hilfiger, Desigual The kooples, Michael kors,...)",
   "price":59.00,
   "images_url":{
      "small":"https://raw.githubusercontent.com/leboncoin/paperclip/master/ad-small/8bf2d7af3bafb9781ffba53b2d85546cdf1a2c98.jpg",
      "thumb":"https://raw.githubusercontent.com/leboncoin/paperclip/master/ad-thumb/8bf2d7af3bafb9781ffba53b2d85546cdf1a2c98.jpg"
   },
   "creation_date":"2019-11-05T15:56:27+0000",
   "is_urgent":false
},
{
   "id":1675711619,
   "category_id":8,
   "title":"Imac 27 pouces mi 2011 paris 450 euro",
   "description":"imac 27 pouces mi 2011  processeur 3'1 ghz intel core i5  1To  memoire 4go 1333mhz ddr3 graphisme AMD radeon HD 6970M 1024Mo lecteur et graveur de dvd/cd lecteur de carte  avec son clavier et souris d'origine tres bon etat contactez uniquement par telephone ou par sms cordialement",
   "price":450.00,
   "images_url":{
      "small":"https://raw.githubusercontent.com/leboncoin/paperclip/master/ad-small/e1471155018c91ff51a34c75f786c73010d6307e.jpg",
      "thumb":"https://raw.githubusercontent.com/leboncoin/paperclip/master/ad-thumb/e1471155018c91ff51a34c75f786c73010d6307e.jpg"
   },
   "creation_date":"2019-09-15T22:31:30+0000",
   "is_urgent":false
},
{
   "id":1701863825,
   "category_id":2,
   "title":"Dr Martens chaussures multicolores",
   "description":"Je vends une paire de Dr Martens multicolores  Taille 38, quelques éraflures sur les côtés internes dés chaussures",
   "price":40.00,
   "images_url":{
      "small":"https://raw.githubusercontent.com/leboncoin/paperclip/master/ad-small/e854984b8056b42ada8b1ad99730b7afef57a932.jpg",
      "thumb":"https://raw.githubusercontent.com/leboncoin/paperclip/master/ad-thumb/e854984b8056b42ada8b1ad99730b7afef57a932.jpg"
   },
   "creation_date":"2019-11-05T15:56:25+0000",
   "is_urgent":false
},
{
   "id":1701863837,
   "category_id":1,
   "title":"2 phare xénon megane 2 année 2003 avec ballast et ampoule",
   "description":"2 phare xénon megane 2 année 2003 avec ballast et ampoule",
   "price":250.00,
   "images_url":{
      "small":"https://raw.githubusercontent.com/leboncoin/paperclip/master/ad-small/04e2ab5030a9977052b629a2204a636c5f88d2ed.jpg",
      "thumb":"https://raw.githubusercontent.com/leboncoin/paperclip/master/ad-thumb/04e2ab5030a9977052b629a2204a636c5f88d2ed.jpg"
   },
   "creation_date":"2019-11-05T15:56:24+0000",
   "is_urgent":false
},
{
   "id":1701863683,
   "category_id":6,
   "title":"Point chaud",
   "description":"Cession Bail, Point chaut et sandwicherie .Cause maladie, ouvert il ya 10jours. Excellent emplacement à 15m du metro. Très belle Enseigne qui enveloppe toutes les  spécialités  et Saveurs du métier de bouche.Travaux réalisés il ya 16jours.  faible  loyer,Gros potentiel car Artère très fréquentée avec beaucoup de passage.jusqu’a très tard la nuit . ( Restauration avec autorisation de placer une extraction -RCP).",
   "price":39000.00,
   "images_url":{
      "small":"https://raw.githubusercontent.com/leboncoin/paperclip/master/ad-small/efbb49f1613bdb7c6f579554311763820b873fe6.jpg",
      "thumb":"https://raw.githubusercontent.com/leboncoin/paperclip/master/ad-thumb/efbb49f1613bdb7c6f579554311763820b873fe6.jpg"
   },
   "creation_date":"2019-11-05T15:56:22+0000",
   "is_urgent":false
},
{
   "id":1701863731,
   "category_id":11,
   "title":"Réducteur WC Minnie Disney",
   "description":"Réducteur WC rose Minnie  A venir retirer dans le 13e. Cliquez sur mon profil vendeur pour consulter d'autres annonces dédiées à l'équipement bébé.",
   "price":2.00,
   "images_url":{
      "small":"https://raw.githubusercontent.com/leboncoin/paperclip/master/ad-small/47bc6ef765bf68dc7ae6e15c99e8db82214020fa.jpg",
      "thumb":"https://raw.githubusercontent.com/leboncoin/paperclip/master/ad-thumb/47bc6ef765bf68dc7ae6e15c99e8db82214020fa.jpg"
   },
   "creation_date":"2019-11-05T15:56:19+0000",
   "is_urgent":false
},
{
   "id":1701863581,
   "category_id":4,
   "title":"Table basse verre/blanc laqué",
   "description":"La table basse design LOUNA sera du plus bel effet dans votre intérieur grâce à ses lignes arrondies. Elle est aussi très pratique avec ses poufs qui apportent tout de suite deux places assises supplémentaires. Ambiance zen et reposante assurée! Dimensions - Largeur : 60 cm - Longueur : 100 cm - Hauteur : 41 cm",
   "price":200.00,
   "images_url":{
      "small":"https://raw.githubusercontent.com/leboncoin/paperclip/master/ad-small/e0ab1cc449b519ed0e26d56e1e3ddc57ebf4d4c5.jpg",
      "thumb":"https://raw.githubusercontent.com/leboncoin/paperclip/master/ad-thumb/e0ab1cc449b519ed0e26d56e1e3ddc57ebf4d4c5.jpg"
   },
   "creation_date":"2019-11-05T15:56:18+0000",
   "is_urgent":true
}
]
