{
  "images" : [
    {
      "filename" : "icons8-mail-filter-25.png",
      "idiom" : "universal",
      "scale" : "1x"
    },
    {
      "appearances" : [
        {
          "appearance" : "luminosity",
          "value" : "dark"
        }
      ],
      "filename" : "icons8-mail-filter-25 (1).png",
      "idiom" : "universal",
      "scale" : "1x"
    },
    {
      "filename" : "icons8-mail-filter-50.png",
      "idiom" : "universal",
      "scale" : "2x"
    },
    {
      "appearances" : [
        {
          "appearance" : "luminosity",
          "value" : "dark"
        }
      ],
      "filename" : "icons8-mail-filter-50 (1).png",
      "idiom" : "universal",
      "scale" : "2x"
    },
    {
      "filename" : "icons8-mail-filter-100.png",
      "idiom" : "universal",
      "scale" : "3x"
    },
    {
      "appearances" : [
        {
          "appearance" : "luminosity",
          "value" : "dark"
        }
      ],
      "filename" : "icons8-mail-filter-100 (1).png",
      "idiom" : "universal",
      "scale" : "3x"
    }
  ],
  "info" : {
    "author" : "xcode",
    "version" : 1
  }
}
